Missing Data
…
sp %>% filter(!complete.cases(VALUEUOM))
#> # A tibble: 0 x 14
#> #  with 14 variables: SUBJECT_ID <int>, HADM_ID <int>, ICUSTAY_ID <int>,
#> #   ITEMID <int>, CHARTTIME <dttm>, STORETIME <dttm>, CGID <int>, VALUE <chr>,
#> #   VALUENUM <dbl>, VALUEUOM <chr>, WARNING <int>, ERROR <int>,
#> #   RESULTSTATUS <chr>, STOPPED <chr>
na_uom <- sp %>% filter(!complete.cases(VALUEUOM)) %>% count()
na_uom_pct <- round(100 * na_uom / (sp %>% count()), 2)

sp %>% filter(!complete.cases(VALUENUM))
#> # A tibble: 131 x 14
#>    SUBJECT_ID HADM_ID ICUSTAY_ID ITEMID CHARTTIME           STORETIME          
#>         <int>   <int>      <int>  <int> <dttm>              <dttm>             
#>  1      10013  165520     264446    646 2125-10-06 21:30:00 2125-10-06 21:17:00
#>  2      10013  165520     264446    646 2125-10-06 22:00:00 2125-10-06 23:32:00
#>  3      10013  165520     264446    646 2125-10-07 11:15:00 2125-10-07 11:19:00
#>  4      10013  165520     264446    646 2125-10-07 12:10:00 2125-10-07 12:14:00
#>  5      10019  177759     228977    646 2163-05-15 06:30:00 2163-05-15 08:28:00
#>  6      10040  157839     272047    646 2147-02-23 16:45:00 2147-02-23 16:59:00
#>  7      10040  157839     272047    646 2147-02-23 11:50:00 2147-02-23 11:51:00
#>  8      10040  157839     272047    646 2147-02-23 23:30:00 2147-02-23 23:19:00
#>  9      10045  126949     203766    646 2129-11-30 22:35:00 2129-11-30 22:43:00
#> 10      10045  126949     203766    646 2129-11-30 22:40:00 2129-11-30 22:43:00
#> #  with 121 more rows, and 8 more variables: CGID <int>, VALUE <chr>,
#> #   VALUENUM <dbl>, VALUEUOM <chr>, WARNING <int>, ERROR <int>,
#> #   RESULTSTATUS <chr>, STOPPED <chr>
…
